<?xml version="1.0" encoding="utf-8"?>
<!-- Generator: Adobe Illustrator 21.0.2, SVG Export Plug-In . SVG Version: 6.00 Build 0)  -->
<svg version="1.1" id="Calque_1" xmlns="http://www.w3.org/2000/svg" xmlns:xlink="http://www.w3.org/1999/xlink" x="0px" y="0px"
	 width="500px" height="500px" viewBox="0 0 500 500" style="enable-background:new 0 0 500 500;" xml:space="preserve">
<g transform="translate(-2826.551 429.489)">
	<path d="M3318.9-288.5h-484.2c-4.5,0-8,3.5-8,7.5c0,0,0,0,0,0.5v32c0,3.5,2,6,5,7.5l53.5,20c4,1.5,9-0.5,10.5-5c1.5-4-0.5-9-5-10.5
		l0,0l-48.5-18V-273h69.5V-9.4c-21.5,4.5-36,25.5-31.5,47.5c4.5,21.5,25.5,36,47.5,31.5c21.5-4.5,36-25.5,31.5-47.5
		c-3-16-15.5-28-31.5-31.5v-17h297.1v17c-21.5,4.5-36,25.5-31.5,47.5c4.5,21.5,25.5,36,47.5,31.5c21.5-4.5,36-25.5,31.5-47.5
		c-3-16-15.5-28-31.5-31.5V-273h69.5v18.5l-48.5,18c-4,1.5-6,6-4.5,10.5c1,3,4,5,7.5,5c1,0,2,0,3-0.5l53.5-20c3-1,5-4,5-7.5v-32
		c0-4-3-8-7-8C3319.4-288.5,3318.9-288.5,3318.9-288.5z M2944.3,30.6c0,13.5-11,24-24,24c-13.5,0-24-11-24-24c0-13.5,11-24,24-24
		C2933.7,6.6,2944.3,17.1,2944.3,30.6z M2928.2-41.4v-123.5h297.1v123.5H2928.2z M3257.4,30.6c0,13.5-11,24-24,24
		c-13.5,0-24-11-24-24s11-24,24-24S3257.4,17.1,3257.4,30.6z M3225.4-180.9h-297.1v-91.5h297.1V-180.9z"/>
	<path d="M2990.3-202.9c13,0,24-10.5,24-24c0-13-10.5-24-24-24c-13,0-24,10.5-24,24C2966.3-213.4,2977.3-202.9,2990.3-202.9
		L2990.3-202.9L2990.3-202.9z M2990.3-234.4c4.5,0,8,3.5,8,8s-3.5,8-8,8c-4.5,0-8-3.5-8-8l0,0
		C2982.8-230.9,2986.3-234.4,2990.3-234.4z"/>
	<path d="M3076.8-202.9c13,0,24-10.5,24-24c0-13-10.5-24-24-24c-13,0-24,10.5-24,24C3052.8-213.4,3063.3-202.9,3076.8-202.9
		C3076.3-202.9,3076.8-202.9,3076.8-202.9L3076.8-202.9z M3076.8-234.4c4.5,0,8,3.5,8,8s-3.5,8-8,8c-4.5,0-8-3.5-8-8l0,0
		C3068.8-230.9,3072.3-234.4,3076.8-234.4z"/>
	<path d="M3162.8-202.9c13,0,24-10.5,24-24c0-13-10.5-24-24-24c-13,0-24,10.5-24,24C3138.8-213.4,3149.3-202.9,3162.8-202.9
		L3162.8-202.9z M3162.8-234.4c4.5,0,8,3.5,8,8s-3.5,8-8,8c-4.5,0-8-3.5-8-8S3158.3-234.4,3162.8-234.4z"/>
	<path d="M2920.2-304.5c4.5,0,8-3.5,8-7.5c0,0,0,0,0-0.5v-69h297.1v69c0,4.5,3.5,8,8,8c4.5,0,8-3.5,8-8v-77c0-4.5-3.5-8-7.5-8
		c0,0,0,0-0.5,0h-88.5c-4-18.5-20-32-39-32h-57.5c-19,0-35,13.5-39,32h-88.5c-4.5,0-8,3.5-8,7.5c0,0,0,0,0,0.5v77
		C2912.2-308,2915.7-304.5,2920.2-304.5z M3047.8-413.5h57.5c10,0,19,6.5,22.5,16h-102.5C3028.8-407,3037.8-413.5,3047.8-413.5z"/>
</g>
</svg>
