<?xml version="1.0" encoding="utf-8"?>
<!-- Generator: Adobe Illustrator 21.0.2, SVG Export Plug-In . SVG Version: 6.00 Build 0)  -->
<svg version="1.1" id="Calque_1" xmlns="http://www.w3.org/2000/svg" xmlns:xlink="http://www.w3.org/1999/xlink" x="0px" y="0px"
	 width="500px" height="500px" viewBox="0 0 500 500" style="enable-background:new 0 0 500 500;" xml:space="preserve">
<path d="M488,425.3l-92-92c22-34.5,33.5-74.5,33-115c0-118.5-96.5-214.5-215-214S-0.5,100.8,0,219.3s96.5,214.5,215.5,214
	c44.5,0,87.5-14,124-39.5l90.5,89.5c7.5,8,18,12,29,12.5c23-0.5,41-19,41-42C500,442.8,495.5,432.8,488,425.3L488,425.3z M215,350.8
	c-73,0-132.5-59.5-132.5-132.5C82.5,144.8,142,85.8,215,85.8s132.5,59,132.5,132.5C347,291.3,288,350.3,215,350.8L215,350.8z"/>
</svg>
